\relax 
\providecommand\hyper@newdestlabel[2]{}
\providecommand\HyperFirstAtBeginDocument{\AtBeginDocument}
\HyperFirstAtBeginDocument{\ifx\hyper@anchor\@undefined
\global\let\oldcontentsline\contentsline
\gdef\contentsline#1#2#3#4{\oldcontentsline{#1}{#2}{#3}}
\global\let\oldnewlabel\newlabel
\gdef\newlabel#1#2{\newlabelxx{#1}#2}
\gdef\newlabelxx#1#2#3#4#5#6{\oldnewlabel{#1}{{#2}{#3}}}
\AtEndDocument{\ifx\hyper@anchor\@undefined
\let\contentsline\oldcontentsline
\let\newlabel\oldnewlabel
\fi}
\fi}
\global\let\hyper@last\relax 
\gdef\HyperFirstAtBeginDocument#1{#1}
\providecommand\HyField@AuxAddToFields[1]{}
\providecommand\HyField@AuxAddToCoFields[2]{}
\select@language{english}
\@writefile{toc}{\select@language{english}}
\@writefile{lof}{\select@language{english}}
\@writefile{lot}{\select@language{english}}
\newlabel{index::doc}{{}{1}{}{section*.2}{}}
\@writefile{toc}{\contentsline {chapter}{\numberline {1}Simulation}{3}{chapter.1}}
\@writefile{lof}{\addvspace {10\p@ }}
\@writefile{lot}{\addvspace {10\p@ }}
\newlabel{simulation::doc}{{1}{3}{Simulation}{chapter.1}{}}
\newlabel{simulation:welcome-to-chutes-s-documentation}{{1}{3}{Simulation}{chapter.1}{}}
\newlabel{simulation:simulation}{{1}{3}{Simulation}{chapter.1}{}}
\@writefile{toc}{\contentsline {section}{\numberline {1.1}The simulation module}{3}{section.1.1}}
\newlabel{simulation:module-chutes.simulation}{{1.1}{3}{The simulation module}{section.1.1}{}}
\newlabel{simulation:the-simulation-module}{{1.1}{3}{The simulation module}{section.1.1}{}}
\newlabel{simulation:chutes.simulation.Simulation}{{1.1}{3}{The simulation module}{section*.3}{}}
\newlabel{simulation:chutes.simulation.Simulation.durations_per_type}{{1.1}{3}{The simulation module}{section*.4}{}}
\newlabel{simulation:chutes.simulation.Simulation.players_per_type}{{1.1}{3}{The simulation module}{section*.5}{}}
\newlabel{simulation:chutes.simulation.Simulation.run_simulation}{{1.1}{3}{The simulation module}{section*.6}{}}
\newlabel{simulation:chutes.simulation.Simulation.single_game}{{1.1}{3}{The simulation module}{section*.7}{}}
\newlabel{simulation:chutes.simulation.Simulation.winners_per_type}{{1.1}{3}{The simulation module}{section*.8}{}}
\@writefile{toc}{\contentsline {chapter}{\numberline {2}Board and Player}{5}{chapter.2}}
\@writefile{lof}{\addvspace {10\p@ }}
\@writefile{lot}{\addvspace {10\p@ }}
\newlabel{board_and_player:board-and-player}{{2}{5}{Board and Player}{chapter.2}{}}
\newlabel{board_and_player::doc}{{2}{5}{Board and Player}{chapter.2}{}}
\@writefile{toc}{\contentsline {section}{\numberline {2.1}The board module}{5}{section.2.1}}
\newlabel{board_and_player:module-chutes.board}{{2.1}{5}{The board module}{section.2.1}{}}
\newlabel{board_and_player:the-board-module}{{2.1}{5}{The board module}{section.2.1}{}}
\newlabel{board_and_player:chutes.board.Board}{{2.1}{5}{The board module}{section*.9}{}}
\newlabel{board_and_player:chutes.board.Board.goal_reached}{{2.1}{5}{The board module}{section*.10}{}}
\newlabel{board_and_player:chutes.board.Board.position_adjustment}{{2.1}{5}{The board module}{section*.11}{}}
\@writefile{toc}{\contentsline {section}{\numberline {2.2}The player module}{5}{section.2.2}}
\newlabel{board_and_player:the-player-module}{{2.2}{5}{The player module}{section.2.2}{}}
\newlabel{board_and_player:module-chutes.player}{{2.2}{5}{The player module}{section.2.2}{}}
\newlabel{board_and_player:chutes.player.LazyPlayer}{{2.2}{5}{The player module}{section*.12}{}}
\newlabel{board_and_player:chutes.player.Player}{{2.2}{5}{The player module}{section*.13}{}}
\newlabel{board_and_player:chutes.player.Player.move}{{2.2}{5}{The player module}{section*.14}{}}
\newlabel{board_and_player:chutes.player.ResilientPlayer}{{2.2}{5}{The player module}{section*.15}{}}
\@writefile{toc}{\contentsline {chapter}{\numberline {3}Indices and tables}{7}{chapter.3}}
\@writefile{lof}{\addvspace {10\p@ }}
\@writefile{lot}{\addvspace {10\p@ }}
\newlabel{index:indices-and-tables}{{3}{7}{Indices and tables}{chapter.3}{}}
\@writefile{toc}{\contentsline {chapter}{Python Module Index}{9}{section*.16}}
\@writefile{toc}{\contentsline {chapter}{Index}{11}{section*.17}}
