\select@language {english}
\contentsline {chapter}{\numberline {1}Simulation}{3}{chapter.1}
\contentsline {section}{\numberline {1.1}The simulation module}{3}{section.1.1}
\contentsline {chapter}{\numberline {2}Board and Player}{5}{chapter.2}
\contentsline {section}{\numberline {2.1}The board module}{5}{section.2.1}
\contentsline {section}{\numberline {2.2}The player module}{5}{section.2.2}
\contentsline {chapter}{\numberline {3}Indices and tables}{7}{chapter.3}
\contentsline {chapter}{Python Module Index}{9}{section*.16}
\contentsline {chapter}{Index}{11}{section*.17}
